6828 decimal is 15254 octal!

e820 MEMORY MAP
size: 20, address: 0x0000000000000000, length: 0x000000000009f000, type: 1
size: 20, address: 0x000000000009f000, length: 0x0000000000001000, type: 2
size: 20, address: 0x00000000000e8000, length: 0x0000000000018000, type: 2
size: 20, address: 0x0000000000100000, length: 0x0000000007ef0000, type: 1
size: 20, address: 0x0000000007ff0000, length: 0x0000000000010000, type: 3
size: 20, address: 0x00000000fffc0000, length: 0x0000000000040000, type: 2

Physical memory: 128M available, base = 636K, extended = 130048K, npages = 32768
check_page_alloc() succeeded!
check_page() succeeded!
check_boot_pml4e() succeeded!
enabled interrupts: 1 2 4
PCI: 00:00.0: 8086:1237: class: 8000000006.8000000000 (Bridge device) irq: 549755813888
PCI: 00:01.0: 8086:7000: class: 8000000006.8000000001 (Bridge device) irq: 549755813888
PCI: 00:01.1: 8086:7010: class: 8000000001.8000000001 (Storage controller) irq: 549755813888
PCI: 00:01.3: 8086:7113: class: 8000000006.8000000080 (Bridge device) irq: 549755813897

Adding idle
Adding FILE SYSTEM
Adding ICODEFS is running
FS can do I/O
Device 1 presence: 1
block cache is good
superblock is good
bitmap is good
HOST SERVE CALLED


icode startup
icode: open /motd
icode: read /motd
Writing MOTD
This is /motd, the message of the day.

Welcome to the JOS kernel, now with a file system!

icode: close /motd
icode: spawn /sbin/init
icode: exiting
init: running
init: data seems okay
init: bss seems okay
init: args: 'init' 'initarg1' 'initarg2'
init: running sh
init: starting sh
init waiting
$ vmm
101000

209000

23d000

VMXON
6828 decimal is 15254 octal!
Physical memory: 16M available, base = 640K, extended = 15360K, npages = 4096
check_page() succeeded!
check_boot_pml4e() succeeded!
enabled interrupts: 1 2 4
hello, world
i am environment 00001001
FS is running
FS can do I/O
GUEST AFTER SERVE_INIT


CASE 2,fd9000block cache is good
superblock is good
bitmap is good
GUEST AFTER FS_INIT GUEST SERVING

icode startup
icode: open /motd



CASE 2,fcc000icode: read /motd
Writing MOTD

This is /motd, the message of the day.

Welcome to the JOS guest kernel.

What is the tortoise standing on?
You are very clever, young man, very clever,
said the old lady. But it is turtles all the way
down!

icode: close /motd
icode: spawn /sbin/init
icode: exiting
init: running
init: data seems okay
init: bss seems okay
init: args: 'init' 'initarg1' 'initarg2'
init: running sh
init: starting sh
init waiting
$$ ls
bin
sbin
newmotd
motd
motd_guest
index.html
lorem
script
testshell.key
testshell.sh
$$ 